C:\Workspace\FoodFinderTest\src\main\java\com\ironyard\repo\VendorListRepository.java
C:\Workspace\FoodFinderTest\src\main\java\com\ironyard\springboot\data\Vendor.java
C:\Workspace\FoodFinderTest\src\main\java\com\ironyard\springboot\data\VendorType.java
C:\Workspace\FoodFinderTest\src\main\java\com\ironyard\repo\VendorRepository.java
C:\Workspace\FoodFinderTest\src\main\java\com\ironyard\springboot\controller\VendorController.java
C:\Workspace\FoodFinderTest\src\main\java\com\ironyard\Application.java
C:\Workspace\FoodFinderTest\src\main\java\com\ironyard\springboot\data\VendorList.java
